0.000000000000000000e+00 1.599999999999949907e+00
2.500000000000000000e-01 1.599990095181454963e+00
5.000000000000000000e-01 1.599998233194479091e+00
7.500000000000000000e-01 1.599997638310480363e+00
1.000000000000000000e+00 1.599997156454443292e+00
1.250000000000000000e+00 1.599996573468129180e+00
1.500000000000000000e+00 1.599996168947011466e+00
1.750000000000000000e+00 1.599996198691216120e+00
2.000000000000000000e+00 1.599998596073729296e+00
2.250000000000000000e+00 1.600005074360463242e+00
2.500000000000000000e+00 1.600019190957726822e+00
2.750000000000000000e+00 1.600044247471705816e+00
3.000000000000000000e+00 1.600084800713825972e+00
3.250000000000000000e+00 1.600145056513950559e+00
3.500000000000000000e+00 1.600229779892936133e+00
3.750000000000000000e+00 1.600349470553263709e+00
4.000000000000000000e+00 1.600505080309364558e+00
4.250000000000000000e+00 1.600700713860804925e+00
4.500000000000000000e+00 1.600942908982738722e+00
4.750000000000000000e+00 1.601235026769770364e+00
5.000000000000000000e+00 1.601578072575844169e+00
5.250000000000000000e+00 1.601973390838807187e+00
5.500000000000000000e+00 1.602423551457495599e+00
5.750000000000000000e+00 1.602927311124361154e+00
6.000000000000000000e+00 1.603482980368858835e+00
6.250000000000000000e+00 1.604089232599672732e+00
6.500000000000000000e+00 1.604744146341490874e+00
6.750000000000000000e+00 1.605445240928046635e+00
7.000000000000000000e+00 1.606189535990510731e+00
7.250000000000000000e+00 1.606974306960165633e+00
7.500000000000000000e+00 1.607797037477705526e+00
7.750000000000000000e+00 1.608654741225464146e+00
8.000000000000000000e+00 1.609543860797143511e+00
8.250000000000000000e+00 1.610461707317083269e+00
8.500000000000000000e+00 1.611405609756117574e+00
8.750000000000000000e+00 1.612371356335517980e+00
9.000000000000000000e+00 1.613356769779881850e+00
9.250000000000000000e+00 1.614357495538368159e+00
9.500000000000000000e+00 1.615370928019040031e+00
9.750000000000000000e+00 1.616393456276024487e+00
1.000000000000000000e+01 1.617421719214753306e+00
1.025000000000000000e+01 1.618452772159423736e+00
1.050000000000000000e+01 1.619483242117779609e+00
1.075000000000000000e+01 1.620510832837601445e+00
1.100000000000000000e+01 1.621532516359316833e+00
1.125000000000000000e+01 1.622545615704943378e+00
1.150000000000000000e+01 1.623548328375968186e+00
1.175000000000000000e+01 1.624538149910776497e+00
1.200000000000000000e+01 1.625513039857234832e+00
1.225000000000000000e+01 1.626471403926239345e+00
1.250000000000000000e+01 1.627411689470561695e+00
1.275000000000000000e+01 1.628332260559198108e+00
1.300000000000000000e+01 1.629232433075550990e+00
1.325000000000000000e+01 1.630110737656162101e+00
1.350000000000000000e+01 1.630966579417018503e+00
1.375000000000000000e+01 1.631799060083285458e+00
1.400000000000000000e+01 1.632607810826892880e+00
1.425000000000000000e+01 1.633392046400957920e+00
1.450000000000000000e+01 1.634151493158838120e+00
1.475000000000000000e+01 1.634886151100541918e+00
1.500000000000000000e+01 1.635595782272464715e+00
1.525000000000000000e+01 1.636279863176684168e+00
1.550000000000000000e+01 1.636939018441407656e+00
1.575000000000000000e+01 1.637572813801312588e+00
1.600000000000000000e+01 1.638181368233199153e+00
1.625000000000000000e+01 1.638764854253424108e+00
1.650000000000000000e+01 1.639323378941115017e+00
1.675000000000000000e+01 1.639857293277817263e+00
1.700000000000000000e+01 1.640366591314698308e+00
1.725000000000000000e+01 1.640851867935757769e+00
1.750000000000000000e+01 1.641313069601434416e+00
1.775000000000000000e+01 1.641751023200479498e+00
1.800000000000000000e+01 1.642165645449146671e+00
1.825000000000000000e+01 1.642557376561573967e+00
1.850000000000000000e+01 1.642926650803094857e+00
1.875000000000000000e+01 1.643274051160029225e+00
1.900000000000000000e+01 1.643599393218327931e+00
1.925000000000000000e+01 1.643903914336709571e+00
1.950000000000000000e+01 1.644187584770970378e+00
1.975000000000000000e+01 1.644451058893522166e+00
2.000000000000000000e+01 1.644694580606786305e+00
2.025000000000000000e+01 1.644918685306368644e+00
2.050000000000000000e+01 1.645123872694829181e+00
2.075000000000000000e+01 1.645310505651403243e+00
